{
    "name": "EntitasRedux.VisualDebugging",
    "rootNamespace": "",
    "references": [
        "GUID:53bc2da9556d30547913e5a8aa819794"
    ],
    "includePlatforms": [],
    "excludePlatforms": [],
    "allowUnsafeCode": false,
    "overrideReferences": false,
    "precompiledReferences": [
        "EntitasRedux.Core.dll"
    ],
    "autoReferenced": true,
    "defineConstraints": [],
    "versionDefines": [],
    "noEngineReferences": false
}